\contentsline {chapter}{\numberline {}Introduction}{1}
\contentsline {section}{\numberline {}Another Equation}{1}
\contentsline {chapter}{\numberline {1}A Review of the Literature}{3}
\contentsline {section}{\numberline {1.1}A Section}{3}
\contentsline {subsection}{\numberline {1.1.1}A Subsection}{3}
\contentsline {chapter}{\numberline {2}Equations, Figures and Tables}{5}
\contentsline {section}{\numberline {2.1}A Section Heading}{5}
\contentsline {subsection}{\numberline {2.1.1}A Subsection Heading}{5}
\contentsline {subsubsection}{\numberline {2.1.1.1}Tables and Figures}{6}
\contentsline {chapter}{\numberline {3}Another Chapter}{9}
\contentsline {chapter}{\numberline {4}Yet Another Chapter}{11}
\contentsline {chapter}{\numberline {5}Conclusions}{13}
\contentsline {section}{\numberline {5.1}A Section in the Conclusions Chapter}{13}
